Downloading from Copernicus Climate Service • CopernicusClimate
…
Websites

If you want a visual interface for exploring available datasets, you
can use your web browser and visit either the Climate Data Store
or STAC
catalogue. Both allow you to navigate through the treasures of
information, and identify which dataset best serves your needs.

Programatically

You can also use this R package to look for datasets. You could start
by listing them all:

cds_list_datasets()
#> # A tibble: 124 × 16
#>    type       id    stac_version title description keywords license extent      
#>    <chr>      <chr> <chr>        <chr> <chr>       <list>   <chr>   <list>      
#>  1 Collection deri… 1.0.0        ERA5… "ERA5 is t… <list>   CC-BY-… <named list>
#>  2 Collection deri… 1.0.0        ERA5… "ERA5 is t… <list>   CC-BY-… <named list>
#>  3 Collection deri… 1.0.0        ERA5… "ERA5-Land… <list>   CC-BY-… <named list>
#>  4 Collection ecv-… 1.0.0        Esse… "The Essen… <list>   CC-BY-… <named list>
#>  5 Collection deri… 1.0.0        Ther… "This data… <list>   other   <named list>
#>  6 Collection sis-… 1.0.0        Agro… "This data… <list>   CC-BY-… <named list>
#>  7 Collection rean… 1.0.0        ERA5… "ERA5 is t… <list>   CC-BY-… <named list>
#>  8 Collection rean… 1.0.0        ERA5… "ERA5-Land… <list>   CC-BY-… <named list>
#>  9 Collection rean… 1.0.0        ERA5… "ERA5-Land… <list>   CC-BY-… <named list>
#> 10 Collection sate… 1.0.0        Sea … "This data… <list>   other   <named list>
#> # ℹ 114 more rows
#> # ℹ 8 more variables: links <list>, assets <named list>, published <chr>,
#> #   updated <chr>, `sci:doi` <chr>, `cads:disabled_reason` <chr>,
#> #   `cads:sanity_check` <list>, `cads:message` <list>
…
